<?xml version="1.0" standalone="no"?>
<svg viewBox="0 0 200 200" xmlns="http://www.w3.org/2000/svg">
  <path fill="#BAE6FF" d="M56.4,-37.6C65.8,-16.3,61,8.1,49.2,23.3C37.5,38.6,18.7,44.8,0.8,44.3C-17.2,43.8,-34.3,36.8,-48.1,20.4C-61.8,3.9,-72.2,-21.9,-63.6,-42.7C-55,-63.6,-27.5,-79.5,-2,-78.3C23.5,-77.2,47,-58.9,56.4,-37.6Z" transform="translate(100 100)" />
</svg>
