<?xml version="1.0" standalone="no"?>
<svg viewBox="0 0 200 200" xmlns="http://www.w3.org/2000/svg">
  <path fill="#F1C21Bb3" d="M39.3,-34.6C52,-15.4,64.1,1,60.6,12.7C57,24.5,37.8,31.5,19.9,39.4C2,47.2,-14.5,55.9,-20.2,50C-26,44.2,-20.9,23.9,-24.6,6.1C-28.3,-11.8,-40.8,-27.1,-38.1,-44C-35.5,-61,-17.8,-79.4,-2.2,-77.6C13.3,-75.9,26.5,-53.8,39.3,-34.6Z" transform="translate(100 100)" />
</svg>
